cross-validation
…
when the variables ammount is large, there is a trend to overfit; But wiggly is useful to select relative important variables.

??? wiggly model

Using modelr to CV

cv_df =
    crossv_mc(nonlin_df,100) ## create 100 pair of train and test datasets

note about resample

cv_df %>% pull(train) %>% .[[8]] %>% as_tibble

## # A tibble: 79 x 3
##       id     x      y
##    <int> <dbl>  <dbl>
##  1     1 0.266  1.11 
##  2     4 0.908 -3.04 
##  3     5 0.202  1.33 
##  4     7 0.945 -3.27 
##  5    11 0.206  1.63 
##  6    12 0.177  0.836
##  7    13 0.687 -0.291
##  8    15 0.770 -1.43 
##  9    16 0.498  0.666
## 10    17 0.718 -1.29 
## #  with 69 more rows
…
